﻿sudo docker-compose config | sudo docker stack deploy --compose-file - lambda


sudo docker logs $(sudo docker ps -a -f "name=lambda_web" --format "{{.ID}}" | head -n 1)

localhost:8082/login/Lambdadelbot

mongo -u lambdauser -p icandoanything --authenticationDatabase lambdata

db.games.update({}, {"$set":{"players.$[elem].last_seen_sent":null}}, {"arrayFilters":[{"elem.last_seen_sent":{"$ne":null}}], multi:true})





{'writeErrors': [{'index': 0, 'code': 11000, 'keyPattern': {'name': 1.0}, 'keyValue': {'name': 't4_XXXXXX'}, 'errmsg': 'E11000 duplicate key error collection: lambdata.messages index: name_1 dup key: { name: "t4_XXXXXXX" }', 'op': {'gamecode': 'ToF', 'name': 't4_XXXXXXX', 'root_id': None, 'author': 'XXXX', 'dest': 'AAAAA', 'user1': 'XXXX', 'user2': 'AAAAA', 'subject': 'Blabla', 'body': "It's nice playing with R, isn't it?", 'createdOn': datetime.datetime(2021, 4, 2, 16, 17, 31), '_id': ObjectId('606f7320499400564eef0653')}}], 'writeConcernErrors': [], 'nInserted': 0, 'nUpserted': 0, 'nMatched': 0, 'nModified': 0, 'nRemoved': 0, 'upserted': []}

